^C:\USERS\OI.AGANOVSKII\SOURCE\REPOS\STUDY\STUDY\DEBUG\BUFFER.OBJ|C:\USERS\OI.AGANOVSKII\SOURCE\REPOS\STUDY\STUDY\DEBUG\BYTEARRAYINPUTSTREAM.OBJ|C:\USERS\OI.AGANOVSKII\SOURCE\REPOS\STUDY\STUDY\DEBUG\BYTEORDER.OBJ|C:\USERS\OI.AGANOVSKII\SOURCE\REPOS\STUDY\STUDY\DEBUG\CHARBUFFER.OBJ|C:\USERS\OI.AGANOVSKII\SOURCE\REPOS\STUDY\STUDY\DEBUG\DATE.OBJ|C:\USERS\OI.AGANOVSKII\SOURCE\REPOS\STUDY\STUDY\DEBUG\FILE.OBJ|C:\USERS\OI.AGANOVSKII\SOURCE\REPOS\STUDY\STUDY\DEBUG\FILEDESCRIPTOR.OBJ|C:\USERS\OI.AGANOVSKII\SOURCE\REPOS\STUDY\STUDY\DEBUG\FILEINPUTSTREAM.OBJ|C:\USERS\OI.AGANOVSKII\SOURCE\REPOS\STUDY\STUDY\DEBUG\FILEOUTPUTSTREAM.OBJ|C:\USERS\OI.AGANOVSKII\SOURCE\REPOS\STUDY\STUDY\DEBUG\HEAPCHARBUFFER.OBJ|C:\USERS\OI.AGANOVSKII\SOURCE\REPOS\STUDY\STUDY\DEBUG\INTEGER.OBJ|C:\USERS\OI.AGANOVSKII\SOURCE\REPOS\STUDY\STUDY\DEBUG\IOSTREAMIMP.OBJ|C:\USERS\OI.AGANOVSKII\SOURCE\REPOS\STUDY\STUDY\DEBUG\MATH.OBJ|C:\USERS\OI.AGANOVSKII\SOURCE\REPOS\STUDY\STUDY\DEBUG\OBJECT.OBJ|C:\USERS\OI.AGANOVSKII\SOURCE\REPOS\STUDY\STUDY\DEBUG\PRINTSTREAM.OBJ|C:\USERS\OI.AGANOVSKII\SOURCE\REPOS\STUDY\STUDY\DEBUG\READERWRITER.OBJ|C:\USERS\OI.AGANOVSKII\SOURCE\REPOS\STUDY\STUDY\DEBUG\SERVERSOCKET.OBJ|C:\USERS\OI.AGANOVSKII\SOURCE\REPOS\STUDY\STUDY\DEBUG\SOCKET.OBJ|C:\USERS\OI.AGANOVSKII\SOURCE\REPOS\STUDY\STUDY\DEBUG\STRING.OBJ|C:\USERS\OI.AGANOVSKII\SOURCE\REPOS\STUDY\STUDY\DEBUG\STRINGBULDER.OBJ|C:\USERS\OI.AGANOVSKII\SOURCE\REPOS\STUDY\STUDY\DEBUG\STUDY.OBJ|C:\USERS\OI.AGANOVSKII\SOURCE\REPOS\STUDY\STUDY\DEBUG\SYSTEM.OBJ|C:\USERS\OI.AGANOVSKII\SOURCE\REPOS\STUDY\STUDY\DEBUG\THROWABLE.OBJ
C:\USERS\OI.AGANOVSKII\SOURCE\REPOS\STUDY\DEBUG\STUDY.EXE
C:\USERS\OI.AGANOVSKII\SOURCE\REPOS\STUDY\DEBUG\STUDY.ILK
C:\USERS\OI.AGANOVSKII\SOURCE\REPOS\STUDY\DEBUG\STUDY.PDB
