﻿  FileInputStream.cpp
C:\Program Files (x86)\Windows Kits\10\Include\10.0.18362.0\um\combaseapi.h(169,1): warning C4005: interface: изменение макроопределения
C:\Users\oi.aganovskii\source\repos\Study\Study\Object.h(37): message : см. предыдущее определение "interface"
C:\Users\oi.aganovskii\source\repos\Study\Study\FileInputStream.cpp(47,26): warning C4244: аргумент: преобразование "__int64" в "int", возможна потеря данных
C:\Users\oi.aganovskii\source\repos\Study\Study\FileInputStream.cpp(52,13): warning C4244: return: преобразование "__int64" в "long", возможна потеря данных
  Study.cpp
C:\Users\oi.aganovskii\source\repos\Study\Study\FileInputStream.cpp(56,9): warning C4244: return: преобразование "__int64" в "int", возможна потеря данных
C:\Users\oi.aganovskii\source\repos\Study\Study\Study.cpp(6,10): warning C4067: непредвиденные лексемы за директивой препроцессора, требуется newline
C:\Users\oi.aganovskii\source\repos\Study\Study\Study.cpp(42,1): warning C4326: возвращаемый тип "main" должен быть "int", а не "void"
C:\Users\oi.aganovskii\source\repos\Study\Study\Study.cpp(55,22): error C2653: rapidjson: не является именем класса или пространства имен
C:\Users\oi.aganovskii\source\repos\Study\Study\Study.cpp(55,13): error C2065: Document: необъявленный идентификатор
C:\Users\oi.aganovskii\source\repos\Study\Study\Study.cpp(55,22): error C2146: синтаксическая ошибка: отсутствие ";" перед идентификатором "doc"
C:\Users\oi.aganovskii\source\repos\Study\Study\Study.cpp(55,22): error C2065: doc: необъявленный идентификатор
C:\Users\oi.aganovskii\source\repos\Study\Study\Study.cpp(56,2): error C2065: doc: необъявленный идентификатор
C:\Users\oi.aganovskii\source\repos\Study\Study\Study.cpp(59,18): error C2653: rapidjson: не является именем класса или пространства имен
C:\Users\oi.aganovskii\source\repos\Study\Study\Study.cpp(59,13): error C2065: Value: необъявленный идентификатор
C:\Users\oi.aganovskii\source\repos\Study\Study\Study.cpp(59,20): error C2065: sesId: необъявленный идентификатор
C:\Users\oi.aganovskii\source\repos\Study\Study\Study.cpp(59,28): error C2065: doc: необъявленный идентификатор
  Создание кода...
C:\Users\oi.aganovskii\source\repos\Study\Study\Study.cpp(60,15): error C2065: sesId: необъявленный идентификатор
